<?xml version="1.0" encoding="UTF-8"?>
<svg width="190px" height="22px" viewBox="0 0 190 22" version="1.1" xmlns="http://www.w3.org/2000/svg" xmlns:xlink="http://www.w3.org/1999/xlink">
    <!-- Generator: Sketch 53.2 (72643) - https://sketchapp.com -->
    <title>brand</title>
    <desc>Created with Sketch.</desc>
    <g id="Dispositifs" stroke="none" stroke-width="1" fill="none" fill-rule="evenodd">
        <g id="02---Dispositifs" transform="translate(-32.000000, -42.000000)">
            <g id="Group" transform="translate(32.000000, 37.000000)">
                <g id="brand" transform="translate(0.000000, 5.000000)">
                    <path d="M8.208,6.339 C10.989,6.339 13.203,7.446 14.499,9.39 L11.691,11.415 C10.908,10.443 9.801,9.849 8.37,9.876 C6.345,9.876 4.914,11.442 4.914,13.764 C4.914,16.113 6.345,17.706 8.37,17.706 C9.855,17.706 11.016,17.139 11.745,16.005 L14.607,17.949 C13.392,19.974 11.124,21.162 8.154,21.162 C3.753,21.162 0.756,18.192 0.756,13.791 C0.756,9.336 3.753,6.339 8.208,6.339 Z M23.274,6.339 C27.918,6.339 31.05,9.282 31.05,13.737 C31.05,18.165 27.918,21.162 23.274,21.162 C18.603,21.162 15.471,18.165 15.471,13.737 C15.471,9.282 18.603,6.339 23.274,6.339 Z M23.274,9.795 C21.114,9.795 19.656,11.415 19.656,13.791 C19.656,16.167 21.114,17.787 23.274,17.787 C25.407,17.787 26.892,16.167 26.892,13.791 C26.892,11.415 25.407,9.795 23.274,9.795 Z M53.028,6.312 C56.241,6.312 58.266,8.472 58.266,11.874 L58.266,21 L54.135,21 L54.135,13.089 C54.135,11.226 53.055,10.119 51.327,10.119 C49.329,10.146 48.114,11.712 48.114,13.818 L48.114,21 L43.983,21 L43.983,13.089 C43.983,11.226 42.903,10.119 41.202,10.119 C39.177,10.146 37.962,11.712 37.962,13.818 L37.962,21 L33.804,21 L33.804,6.474 L37.962,6.474 L37.962,8.985 C38.988,7.203 40.689,6.339 42.876,6.312 C45.333,6.312 47.088,7.554 47.79,9.66 C48.735,7.419 50.571,6.339 53.028,6.312 Z M62.64,7.014 L62.64,5.502 C62.64,2.613 64.8,0.669 68.013,0.696 C68.985,0.723 70.065,0.912 70.794,1.236 L70.686,4.719 C70.146,4.314 69.444,4.098 68.85,4.071 C67.635,4.044 66.771,4.908 66.771,6.15 L66.771,7.014 L70.227,7.014 L70.2,9.876 L66.771,9.876 L66.771,21 L62.64,21 L62.64,9.876 L60.696,9.876 L60.723,7.014 L62.64,7.014 Z M76.437,0.966 L76.437,21 L72.279,21 L72.279,0.966 L76.437,0.966 Z M94.365,6.474 L94.365,21 L90.234,21 L90.234,18.435 C89.235,20.271 87.561,21.162 85.374,21.162 C82.161,21.162 80.136,19.029 80.136,15.6 L80.136,6.474 L84.294,6.474 L84.294,14.412 C84.294,16.248 85.347,17.355 87.021,17.355 C89.019,17.328 90.234,15.762 90.234,13.656 L90.234,6.474 L94.365,6.474 Z M104.625,6.339 C109.728,6.339 112.104,9.714 111.753,15.006 L101.331,15.006 C101.817,16.842 103.221,17.922 105.084,17.922 C106.461,17.922 107.757,17.382 108.756,16.383 L110.943,18.597 C109.485,20.217 107.352,21.162 104.733,21.162 C100.089,21.162 97.146,18.192 97.146,13.791 C97.146,9.309 100.197,6.339 104.625,6.339 Z M101.25,12.549 L107.865,12.549 C107.811,10.632 106.569,9.39 104.652,9.39 C102.816,9.39 101.574,10.632 101.25,12.549 Z M123.687,6.312 C126.927,6.312 129.006,8.472 129.006,11.874 L129.006,21 L124.848,21 L124.848,13.089 C124.848,11.253 123.768,10.119 121.986,10.119 C119.907,10.146 118.665,11.712 118.665,13.845 L118.665,21 L114.507,21 L114.507,6.474 L118.665,6.474 L118.665,9.012 C119.691,7.203 121.419,6.339 123.687,6.312 Z M138.807,6.339 C141.588,6.339 143.802,7.446 145.098,9.39 L142.29,11.415 C141.507,10.443 140.4,9.849 138.969,9.876 C136.944,9.876 135.513,11.442 135.513,13.764 C135.513,16.113 136.944,17.706 138.969,17.706 C140.454,17.706 141.615,17.139 142.344,16.005 L145.206,17.949 C143.991,19.974 141.723,21.162 138.753,21.162 C134.352,21.162 131.355,18.192 131.355,13.791 C131.355,9.336 134.352,6.339 138.807,6.339 Z M153.549,6.339 C158.652,6.339 161.028,9.714 160.677,15.006 L150.255,15.006 C150.741,16.842 152.145,17.922 154.008,17.922 C155.385,17.922 156.681,17.382 157.68,16.383 L159.867,18.597 C158.409,20.217 156.276,21.162 153.657,21.162 C149.013,21.162 146.07,18.192 146.07,13.791 C146.07,9.309 149.121,6.339 153.549,6.339 Z M150.174,12.549 L156.789,12.549 C156.735,10.632 155.493,9.39 153.576,9.39 C151.74,9.39 150.498,10.632 150.174,12.549 Z" id="comfuence" fill="#3D3D3D" fill-rule="nonzero"></path>
                    <path d="M186.8097,7.2573 C187.7597,6.2357 188.1932,5.35082 187.9488,4.82664 C187.7042,4.30224 186.747,4.06555 185.3527,4.13687 C186.048,5.04367 186.5534,6.10361 186.8097,7.2573 Z M183.4342,2.34028 C182.1651,1.49357 180.6402,1 179.0001,1 C174.88088,1 171.48883,4.1132 171.04845,8.1151 C168.64822,10.1736 167.452598,12.3374 168.23656,14.0186 C169.02045,15.6996 171.44614,16.1747 174.56547,15.6594 C175.83471,16.5063 177.3597,17 179.0001,17 C183.1199,17 186.5125,13.8857 186.9519,9.8829 C189.3505,7.825 190.5451,5.66206 189.7614,3.98141 C188.9776,2.30067 186.5527,1.8255 183.4342,2.34028 Z M175.05162,13.5178 C173.79423,12.418 173.00006,10.8018 173.00006,9 C173.00006,5.68629 175.68635,3 179.0001,3 C182.2733,3 184.9343,5.62106 184.9989,8.8788 C183.7276,9.8592 182.1124,10.8583 180.2668,11.7189 C178.422,12.5792 176.61925,13.1741 175.05162,13.5178 Z M177.7416,14.8678 C178.8361,14.512 179.9696,14.0643 181.1121,13.5315 C182.2553,12.9984 183.3275,12.4175 184.3041,11.8073 C183.2969,13.7065 181.2995,15 179.0001,15 C178.5684,15 178.1474,14.9544 177.7416,14.8678 Z M172.64729,13.863 C171.2519,13.9347 170.29383,13.698 170.04918,13.1734 C169.8046,12.6489 170.23878,11.7632 171.18999,10.7408 C171.44615,11.8952 171.95174,12.9558 172.64729,13.863 Z" id="icon" fill="#E18F07"></path>
                </g>
            </g>
        </g>
    </g>
</svg>
