<svg width="102" height="102" viewBox="0 0 102 102" fill="none" xmlns="http://www.w3.org/2000/svg">
<circle cx="51" cy="51" r="51" fill="#D2DDE4"/>
<path fill-rule="evenodd" clip-rule="evenodd" d="M50.9999 37C55.8763 37 60.539 39.5576 64.8844 43.7599C66.3668 45.1935 67.708 46.724 68.8886 48.2552C69.6011 49.1791 70.1068 49.906 70.3839 50.339L71 51.3022L70.3839 52.2655C70.1068 52.6985 69.6011 53.4254 68.8886 54.3493C67.708 55.8804 66.3668 57.4111 64.8844 58.8447C60.539 63.0469 55.8763 65.6045 50.9999 65.6045C46.1237 65.6045 41.4609 63.0469 37.1155 58.8447C35.6331 57.4111 34.2919 55.8804 33.1113 54.3493C32.3988 53.4254 31.893 52.6985 31.6161 52.2655L31 51.3022L31.6161 50.339C31.893 49.906 32.3988 49.1791 33.1113 48.2552C34.2919 46.724 35.6331 45.1935 37.1155 43.7599C41.4609 39.5576 46.1237 37 50.9999 37ZM66.0574 50.4386C64.9763 49.0366 63.7474 47.6341 62.399 46.3302C58.6563 42.7108 54.7636 40.5756 51.0001 40.5756C47.2368 40.5756 43.344 42.7108 39.6014 46.3302C38.253 47.6341 37.024 49.0366 35.943 50.4386C35.7096 50.7412 35.4938 51.0301 35.2966 51.3022C35.4938 51.5743 35.7096 51.8632 35.943 52.1659C37.024 53.5679 38.253 54.9704 39.6014 56.2742C43.344 59.8936 47.2368 62.0289 51.0001 62.0289C54.7636 62.0289 58.6563 59.8936 62.399 56.2742C63.7474 54.9704 64.9763 53.5679 66.0574 52.1659C66.2908 51.8632 66.5065 51.5743 66.7038 51.3022C66.5065 51.0301 66.2908 50.7412 66.0574 50.4386ZM43.8497 51.3022C43.8497 55.2516 47.0513 58.4534 51.0008 58.4534C54.9503 58.4534 58.1519 55.2516 58.1519 51.3022C58.1519 47.3528 54.9503 44.1511 51.0008 44.1511C47.0513 44.1511 43.8497 47.3528 43.8497 51.3022ZM54.5764 51.3022C54.5764 53.277 52.9756 54.8778 51.0008 54.8778C49.0262 54.8778 47.4252 53.277 47.4252 51.3022C47.4252 49.3275 49.0262 47.7267 51.0008 47.7267C52.9756 47.7267 54.5764 49.3275 54.5764 51.3022Z" fill="#EDF1F4"/>
</svg>
