<?xml version="1.0" encoding="UTF-8"?>
<svg width="18px" height="22px" viewBox="0 0 18 22" version="1.1" xmlns="http://www.w3.org/2000/svg" xmlns:xlink="http://www.w3.org/1999/xlink">
    <!-- Generator: Sketch 55.2 (78181) - https://sketchapp.com -->
    <title>icn_add_new_file</title>
    <desc>Created with Sketch.</desc>
    <g id="Dispositifs" stroke="none" stroke-width="1" fill="none" fill-rule="evenodd">
        <g id="02---Dispositifs-[Détails]-a-définir-procedure" transform="translate(-354.000000, -228.000000)" fill="#3D3D3D">
            <g id="Group-3" transform="translate(338.000000, 166.000000)">
                <g id="Group-10">
                    <g id="icn_add_new_file" transform="translate(16.000000, 62.000000)">
                        <path d="M12.4142,0 L2,0 C0.89543,0 0,0.89543 0,2 L0,20 C0,21.1046 0.89543,22 2,22 L16,22 C17.1046,22 18,21.1046 18,20 L18,5.58579 L12.4142,0 Z M2,2 L10,2 L10,6 C10,7.10457 10.8954,8 12,8 L16,8 L16,20 L2,20 L2,2 Z M12,6 L12,2.41421 L15.5858,6 L12,6 Z M8,9 L8,12 L5,12 L5,14 L8,14 L8,17 L10,17 L10,14 L13,14 L13,12 L10,12 L10,9 L8,9 Z" id="icon"></path>
                    </g>
                </g>
            </g>
        </g>
    </g>
</svg>