<?xml version="1.0" encoding="UTF-8"?>
<svg width="14px" height="20px" viewBox="0 0 14 20" version="1.1" xmlns="http://www.w3.org/2000/svg" xmlns:xlink="http://www.w3.org/1999/xlink">
    <!-- Generator: Sketch 56.2 (81672) - https://sketch.com -->
    <title>icn_padlock_open</title>
    <desc>Created with Sketch.</desc>
    <g id="Dispositifs" stroke="none" stroke-width="1" fill="none" fill-rule="evenodd">
        <g id="02---Dispositifs-[Ajouter]b.étape-1-Copy-2" transform="translate(-694.000000, -265.000000)" fill="#3D3D3D">
            <g id="Carte" transform="translate(0.000000, 87.000000)">
                <g id="actions" transform="translate(694.000000, 16.000000)">
                    <g id="zoom" transform="translate(0.000000, 109.000000)">
                        <g id="icn_padlock_open" transform="translate(0.000000, 53.000000)">
                            <path d="M2,18.0005 L2,11.0005 L12,11.0005 L12.001,18.0005 L2,18.0005 Z M12,9.0005 L4,9.0005 L4,5.0005 C4,3.3465 5.346,2.0005 7,2.0005 C8.654,2.0005 10,3.3465 10,5.0005 L10,6.0005 L12,6.0005 L12,5.0005 C12,2.2435 9.757,0.0005 7,0.0005 C4.243,0.0005 2,2.2435 2,5.0005 L2,9.0005 C0.897,9.0005 0,9.8965 0,11.0005 L0,18.0005 C0,19.1035 0.897,20.0005 2,20.0005 L12,20.0005 C13.103,20.0005 14,19.1035 14,18.0005 L14,11.0005 C14,9.8965 13.103,9.0005 12,9.0005 L12,9.0005 Z" id="Fill-214"></path>
                            <path d="M7,13.0005 C6.172,13.0005 5.5,13.6725 5.5,14.5005 C5.5,15.3285 6.172,16.0005 7,16.0005 C7.828,16.0005 8.5,15.3285 8.5,14.5005 C8.5,13.6725 7.828,13.0005 7,13.0005" id="Fill-215"></path>
                        </g>
                    </g>
                </g>
            </g>
        </g>
    </g>
</svg>