<svg width="15" height="15" viewBox="0 0 15 15" fill="none" xmlns="http://www.w3.org/2000/svg">
<path fill-rule="evenodd" clip-rule="evenodd" d="M2.24085 2.12919L6.13217 11.1067L7.12848 7.31844C7.19954 7.04994 7.42059 6.83994 7.70322 6.77244L11.6909 5.82594L2.24085 2.12919ZM6.31533 14.2507C5.99796 14.2507 5.70822 14.0684 5.58585 13.7857L0.0595359 1.03569C-0.062043 0.756686 0.00585172 0.434186 0.231641 0.220436C0.456641 0.00518645 0.796115 -0.0578136 1.0898 0.0569364L14.5109 5.30694C14.8266 5.42994 15.0224 5.73219 14.998 6.05469C14.9727 6.37794 14.7327 6.64944 14.4019 6.72819L8.54559 8.11869L7.0819 13.6829C6.99901 13.9964 6.71322 14.2244 6.37296 14.2484C6.35401 14.2492 6.33427 14.2507 6.31533 14.2507Z" fill="#3D3D3D"/>
</svg>
