<?xml version="1.0" encoding="UTF-8"?>
<svg width="18px" height="18px" viewBox="0 0 18 18" version="1.1" xmlns="http://www.w3.org/2000/svg" xmlns:xlink="http://www.w3.org/1999/xlink">
    <!-- Generator: Sketch 53.2 (72643) - https://sketchapp.com -->
    <title>icn_close_green</title>
    <desc>Created with Sketch.</desc>
    <g id="Controle" stroke="none" stroke-width="1" fill="none" fill-rule="evenodd">
        <g id="03---Controle---Zone" transform="translate(-629.000000, -88.000000)" fill="#0F7173">
            <g id="pop-in" transform="translate(61.000000, 72.000000)">
                <g id="icn_close_green" transform="translate(568.000000, 16.000000)">
                    <polygon id="Fill-271" points="17.707 1.707 16.293 0.293 9 7.586 1.707 0.293 0.293 1.707 7.586 9 0.293 16.293 1.707 17.707 9 10.415 16.293 17.707 17.707 16.293 10.414 9"></polygon>
                </g>
            </g>
        </g>
    </g>
</svg>